{
  "production": false,
  "ApiBaseUrl": "http://192.168.1.12:3000/",
  "buildProfile": "local",
  "pusherKey": "fa16f79859c2012a3e47",
  "pusherCluster": "mt1",
  "AndroidBannerId": "ca-app-pub-3940256099942544/6300978111",
  "AndroidInterstitialId": "ca-app-pub-3940256099942544/1033173712",
  "AndroidRewardedVideoId": "ca-app-pub-3940256099942544/5224354917",
  "IosBannerId": "ca-app-pub-3940256099942544/6300978111",
  "IosInterstitialId": "ca-app-pub-3940256099942544/1033173712",
  "IosRewardedVideoId": "ca-app-pub-3940256099942544/5224354917",
  "TimeIntervalToShowInterstitialAds": 150000,
  "HereMapAppId": "YYc2S9FXNEkNoaZ0eIil",
  "HereMapAppCode": "ZzqoXvrEr1zMoFvpLY1VSg"
}
